^C:\USERS\GABIM\DESKTOP\GRAFIKALABOLATORIUM-MASTER\GRAFIKALABOLATORIUM-MASTER\ZAJECIA11\ZAJECIA11\X64\DEBUG\SOURCE.OBJ
/OUT:"C:\USERS\GABIM\DESKTOP\GRAFIKALABOLATORIUM-MASTER\GRAFIKALABOLATORIUM-MASTER\ZAJECIA11\X64\DEBUG\ZAJECIA11.EXE" /INCREMENTAL /NOLOGO "C:\USERS\GABIM\DESKTOP\GRAFIKALABOLATORIUM-MASTER\GRAFIKALABOLATORIUM-MASTER\ZAJECIA11\PACKAGES\NUPENGL.CORE.0.1.0.1\BUILD\NATIVE\../..//BUILD/NATIVE/LIB/X64\GLEW32.LIB" "C:\USERS\GABIM\DESKTOP\GRAFIKALABOLATORIUM-MASTER\GRAFIKALABOLATORIUM-MASTER\ZAJECIA11\PACKAGES\NUPENGL.CORE.0.1.0.1\BUILD\NATIVE\../..//BUILD/NATIVE/LIB/X64\GLFW3DLL.LIB" "C:\USERS\GABIM\DESKTOP\GRAFIKALABOLATORIUM-MASTER\GRAFIKALABOLATORIUM-MASTER\ZAJECIA11\PACKAGES\NUPENGL.CORE.0.1.0.1\BUILD\NATIVE\../..//BUILD/NATIVE/LIB/X64\FREEGLUT.LIB" KERNEL32.LIB USER32.LIB GDI32.LIB WINSPOOL.LIB COMDLG32.LIB ADVAPI32.LIB SHELL32.LIB OLE32.LIB OLEAUT32.LIB UUID.LIB ODBC32.LIB ODBCCP32.LIB /MANIFEST /MANIFESTUAC:"level='asInvoker' uiAccess='false'" /manifest:embed /DEBUG:FASTLINK /PDB:"C:\USERS\GABIM\DESKTOP\GRAFIKALABOLATORIUM-MASTER\GRAFIKALABOLATORIUM-MASTER\ZAJECIA11\X64\DEBUG\ZAJECIA11.PDB" /TLBID:1 /DYNAMICBASE /NXCOMPAT /IMPLIB:"C:\USERS\GABIM\DESKTOP\GRAFIKALABOLATORIUM-MASTER\GRAFIKALABOLATORIUM-MASTER\ZAJECIA11\X64\DEBUG\ZAJECIA11.LIB" /MACHINE:X64 X64\DEBUG\SOURCE.OBJ
^C:\USERS\MATEUSZ\DESKTOP\GK-MASTER\ZAJECIA_11\ZAJECIA11\X64\DEBUG\SOURCE.OBJ
/OUT:"C:\USERS\MATEUSZ\DESKTOP\GK-MASTER\ZAJECIA_11\X64\DEBUG\ZAJECIA11.EXE" /INCREMENTAL /NOLOGO "C:\USERS\MATEUSZ\DESKTOP\GK-MASTER\ZAJECIA_11\PACKAGES\NUPENGL.CORE.0.1.0.1\BUILD\NATIVE\../..//BUILD/NATIVE/LIB/X64\GLEW32.LIB" "C:\USERS\MATEUSZ\DESKTOP\GK-MASTER\ZAJECIA_11\PACKAGES\NUPENGL.CORE.0.1.0.1\BUILD\NATIVE\../..//BUILD/NATIVE/LIB/X64\GLFW3DLL.LIB" "C:\USERS\MATEUSZ\DESKTOP\GK-MASTER\ZAJECIA_11\PACKAGES\NUPENGL.CORE.0.1.0.1\BUILD\NATIVE\../..//BUILD/NATIVE/LIB/X64\FREEGLUT.LIB" KERNEL32.LIB USER32.LIB GDI32.LIB WINSPOOL.LIB COMDLG32.LIB ADVAPI32.LIB SHELL32.LIB OLE32.LIB OLEAUT32.LIB UUID.LIB ODBC32.LIB ODBCCP32.LIB /MANIFEST /MANIFESTUAC:"level='asInvoker' uiAccess='false'" /manifest:embed /DEBUG:FASTLINK /PDB:"C:\USERS\MATEUSZ\DESKTOP\GK-MASTER\ZAJECIA_11\X64\DEBUG\ZAJECIA11.PDB" /TLBID:1 /DYNAMICBASE /NXCOMPAT /IMPLIB:"C:\USERS\MATEUSZ\DESKTOP\GK-MASTER\ZAJECIA_11\X64\DEBUG\ZAJECIA11.LIB" /MACHINE:X64 X64\DEBUG\SOURCE.OBJ
