^C:\USERS\GABIM\DESKTOP\GRAFIKA\ZAJECIA_9\2804\2804\SOURCE.CPP
/c /IC:\USERS\GABIM\DESKTOP\GRAFIKA\ZAJECIA_9\2804\PACKAGES\NUPENGL.CORE.0.1.0.1\BUILD\NATIVE\../..//BUILD/NATIVE/INCLUDE/ /ZI /nologo /W3 /WX- /Od /D _DEBUG /D _CONSOLE /D _UNICODE /D UNICODE /Gm /EHsc /RTC1 /MDd /GS /fp:precise /Zc:wchar_t /Zc:forScope /Zc:inline /Fo"X64\DEBUG\\" /Fd"X64\DEBUG\VC140.PDB" /Gd /TP C:\USERS\GABIM\DESKTOP\GRAFIKA\ZAJECIA_9\2804\2804\SOURCE.CPP
^C:\USERS\GABIM\DESKTOP\GRAFIKA\ZAJECIA_9\2804\2804\TARGA.CPP
/c /IC:\USERS\GABIM\DESKTOP\GRAFIKA\ZAJECIA_9\2804\PACKAGES\NUPENGL.CORE.0.1.0.1\BUILD\NATIVE\../..//BUILD/NATIVE/INCLUDE/ /ZI /nologo /W3 /WX- /Od /D _DEBUG /D _CONSOLE /D _UNICODE /D UNICODE /Gm /EHsc /RTC1 /MDd /GS /fp:precise /Zc:wchar_t /Zc:forScope /Zc:inline /Fo"X64\DEBUG\\" /Fd"X64\DEBUG\VC140.PDB" /Gd /TP C:\USERS\GABIM\DESKTOP\GRAFIKA\ZAJECIA_9\2804\2804\TARGA.CPP
^C:\USERS\GABIM\DESKTOP\GRAFIKA\ZAJECIA_10\2804\2804\SOURCE.CPP
/c /IC:\USERS\GABIM\DESKTOP\GRAFIKA\ZAJECIA_10\2804\PACKAGES\NUPENGL.CORE.0.1.0.1\BUILD\NATIVE\../..//BUILD/NATIVE/INCLUDE/ /ZI /nologo /W3 /WX- /Od /D _DEBUG /D _CONSOLE /D _UNICODE /D UNICODE /Gm /EHsc /RTC1 /MDd /GS /fp:precise /Zc:wchar_t /Zc:forScope /Zc:inline /Fo"X64\DEBUG\\" /Fd"X64\DEBUG\VC140.PDB" /Gd /TP C:\USERS\GABIM\DESKTOP\GRAFIKA\ZAJECIA_10\2804\2804\SOURCE.CPP
^C:\USERS\GABIM\DESKTOP\GRAFIKA\ZAJECIA_10\2804\2804\TARGA.CPP
/c /IC:\USERS\GABIM\DESKTOP\GRAFIKA\ZAJECIA_10\2804\PACKAGES\NUPENGL.CORE.0.1.0.1\BUILD\NATIVE\../..//BUILD/NATIVE/INCLUDE/ /ZI /nologo /W3 /WX- /Od /D _DEBUG /D _CONSOLE /D _UNICODE /D UNICODE /Gm /EHsc /RTC1 /MDd /GS /fp:precise /Zc:wchar_t /Zc:forScope /Zc:inline /Fo"X64\DEBUG\\" /Fd"X64\DEBUG\VC140.PDB" /Gd /TP C:\USERS\GABIM\DESKTOP\GRAFIKA\ZAJECIA_10\2804\2804\TARGA.CPP
^C:\USERS\MATEUSZ\DESKTOP\GK-MASTER\ZAJECIA_10\2804\2804\SOURCE.CPP
/c /I"C:\USERS\MATEUSZ\DESKTOP\GK-MASTER\ZAJECIA_10\2804\PACKAGES\NUPENGL.CORE.0.1.0.1\BUILD\NATIVE\../..//BUILD/NATIVE/INCLUDE/" /ZI /nologo /W3 /WX- /diagnostics:classic /Od /D _DEBUG /D _CONSOLE /D _UNICODE /D UNICODE /Gm /EHsc /RTC1 /MDd /GS /fp:precise /Zc:wchar_t /Zc:forScope /Zc:inline /Fo"X64\DEBUG\\" /Fd"X64\DEBUG\VC141.PDB" /Gd /TP C:\USERS\MATEUSZ\DESKTOP\GK-MASTER\ZAJECIA_10\2804\2804\SOURCE.CPP
^C:\USERS\MATEUSZ\DESKTOP\GK-MASTER\ZAJECIA_10\2804\2804\TARGA.CPP
/c /I"C:\USERS\MATEUSZ\DESKTOP\GK-MASTER\ZAJECIA_10\2804\PACKAGES\NUPENGL.CORE.0.1.0.1\BUILD\NATIVE\../..//BUILD/NATIVE/INCLUDE/" /ZI /nologo /W3 /WX- /diagnostics:classic /Od /D _DEBUG /D _CONSOLE /D _UNICODE /D UNICODE /Gm /EHsc /RTC1 /MDd /GS /fp:precise /Zc:wchar_t /Zc:forScope /Zc:inline /Fo"X64\DEBUG\\" /Fd"X64\DEBUG\VC141.PDB" /Gd /TP C:\USERS\MATEUSZ\DESKTOP\GK-MASTER\ZAJECIA_10\2804\2804\TARGA.CPP
