^C:\USERS\GABIM\DESKTOP\GRAFIKA\ZAJECIA_9\2804\2804\X64\DEBUG\SOURCE.OBJ|C:\USERS\GABIM\DESKTOP\GRAFIKA\ZAJECIA_9\2804\2804\X64\DEBUG\TARGA.OBJ
C:\USERS\GABIM\DESKTOP\GRAFIKA\ZAJECIA_9\2804\X64\DEBUG\2804.ILK
C:\USERS\GABIM\DESKTOP\GRAFIKA\ZAJECIA_9\2804\X64\DEBUG\2804.EXE
C:\USERS\GABIM\DESKTOP\GRAFIKA\ZAJECIA_9\2804\X64\DEBUG\2804.PDB
^C:\USERS\MATEUSZ\DESKTOP\GK-MASTER\ZAJECIA_9\2804\2804\X64\DEBUG\SOURCE.OBJ|C:\USERS\MATEUSZ\DESKTOP\GK-MASTER\ZAJECIA_9\2804\2804\X64\DEBUG\TARGA.OBJ
C:\USERS\MATEUSZ\DESKTOP\GK-MASTER\ZAJECIA_9\2804\X64\DEBUG\2804.ILK
C:\USERS\MATEUSZ\DESKTOP\GK-MASTER\ZAJECIA_9\2804\X64\DEBUG\2804.EXE
C:\USERS\MATEUSZ\DESKTOP\GK-MASTER\ZAJECIA_9\2804\X64\DEBUG\2804.PDB
