^C:\USERS\MATEUSZ\DESKTOP\GK-MASTER\ZAJECIA_8\2804\2804\X64\DEBUG\SOURCE.OBJ
C:\USERS\MATEUSZ\DESKTOP\GK-MASTER\ZAJECIA_8\2804\X64\DEBUG\2804.ILK
C:\USERS\MATEUSZ\DESKTOP\GK-MASTER\ZAJECIA_8\2804\X64\DEBUG\2804.EXE
C:\USERS\MATEUSZ\DESKTOP\GK-MASTER\ZAJECIA_8\2804\X64\DEBUG\2804.PDB
