^C:\USERS\BRAND\DOCUMENTS\VISUAL STUDIO 2017\PROJECTS\LASTONE\LASTONE\DEBUG\LASTONE.OBJ|C:\USERS\BRAND\DOCUMENTS\VISUAL STUDIO 2017\PROJECTS\LASTONE\LASTONE\DEBUG\STDAFX.OBJ
/OUT:"C:\USERS\BRAND\DOCUMENTS\VISUAL STUDIO 2017\PROJECTS\LASTONE\DEBUG\LASTONE.EXE" /INCREMENTAL /NOLOGO "C:\USERS\BRAND\DOCUMENTS\VISUAL STUDIO 2017\PROJECTS\LASTONE\PACKAGES\NUPENGL.CORE.0.1.0.1\BUILD\NATIVE\../..//BUILD/NATIVE/LIB/WIN32\GLEW32.LIB" "C:\USERS\BRAND\DOCUMENTS\VISUAL STUDIO 2017\PROJECTS\LASTONE\PACKAGES\NUPENGL.CORE.0.1.0.1\BUILD\NATIVE\../..//BUILD/NATIVE/LIB/WIN32\GLFW3DLL.LIB" "C:\USERS\BRAND\DOCUMENTS\VISUAL STUDIO 2017\PROJECTS\LASTONE\PACKAGES\NUPENGL.CORE.0.1.0.1\BUILD\NATIVE\../..//BUILD/NATIVE/LIB/WIN32\FREEGLUT.LIB" KERNEL32.LIB USER32.LIB GDI32.LIB WINSPOOL.LIB COMDLG32.LIB ADVAPI32.LIB SHELL32.LIB OLE32.LIB OLEAUT32.LIB UUID.LIB ODBC32.LIB ODBCCP32.LIB /MANIFEST /MANIFESTUAC:"level='asInvoker' uiAccess='false'" /manifest:embed /DEBUG:FASTLINK /PDB:"C:\USERS\BRAND\DOCUMENTS\VISUAL STUDIO 2017\PROJECTS\LASTONE\DEBUG\LASTONE.PDB" /SUBSYSTEM:CONSOLE /TLBID:1 /DYNAMICBASE /NXCOMPAT /IMPLIB:"C:\USERS\BRAND\DOCUMENTS\VISUAL STUDIO 2017\PROJECTS\LASTONE\DEBUG\LASTONE.LIB" /MACHINE:X86 DEBUG\LASTONE.OBJDEBUG\STDAFX.OBJ
^C:\USERS\MATEUSZ\DESKTOP\GK-MASTER\ZAJECIA_6\LASTONE\DEBUG\LASTONE.OBJ|C:\USERS\MATEUSZ\DESKTOP\GK-MASTER\ZAJECIA_6\LASTONE\DEBUG\STDAFX.OBJ
/OUT:"C:\USERS\MATEUSZ\DESKTOP\GK-MASTER\ZAJECIA_6\DEBUG\LASTONE.EXE" /INCREMENTAL /NOLOGO "C:\USERS\MATEUSZ\DESKTOP\GK-MASTER\ZAJECIA_6\PACKAGES\NUPENGL.CORE.0.1.0.1\BUILD\NATIVE\../..//BUILD/NATIVE/LIB/WIN32\GLEW32.LIB" "C:\USERS\MATEUSZ\DESKTOP\GK-MASTER\ZAJECIA_6\PACKAGES\NUPENGL.CORE.0.1.0.1\BUILD\NATIVE\../..//BUILD/NATIVE/LIB/WIN32\GLFW3DLL.LIB" "C:\USERS\MATEUSZ\DESKTOP\GK-MASTER\ZAJECIA_6\PACKAGES\NUPENGL.CORE.0.1.0.1\BUILD\NATIVE\../..//BUILD/NATIVE/LIB/WIN32\FREEGLUT.LIB" KERNEL32.LIB USER32.LIB GDI32.LIB WINSPOOL.LIB COMDLG32.LIB ADVAPI32.LIB SHELL32.LIB OLE32.LIB OLEAUT32.LIB UUID.LIB ODBC32.LIB ODBCCP32.LIB /MANIFEST /MANIFESTUAC:"level='asInvoker' uiAccess='false'" /manifest:embed /DEBUG:FASTLINK /PDB:"C:\USERS\MATEUSZ\DESKTOP\GK-MASTER\ZAJECIA_6\DEBUG\LASTONE.PDB" /SUBSYSTEM:CONSOLE /TLBID:1 /DYNAMICBASE /NXCOMPAT /IMPLIB:"C:\USERS\MATEUSZ\DESKTOP\GK-MASTER\ZAJECIA_6\DEBUG\LASTONE.LIB" /MACHINE:X86 DEBUG\LASTONE.OBJDEBUG\STDAFX.OBJ
